[{
  "id": 1,
  "fecha": "5/29/2019",
  "importe": 7,
  "latitud": -7.347756,
  "longitud": 108.8818859
}, {
  "id": 2,
  "fecha": "10/12/2018",
  "importe": 98,
  "latitud": -9.306314,
  "longitud": -74.4328
}, {
  "id": 3,
  "fecha": "5/24/2019",
  "importe": 96,
  "latitud": 28.572029,
  "longitud": 109.482078
}, {
  "id": 4,
  "fecha": "12/17/2018",
  "importe": 15,
  "latitud": 34.4042859,
  "longitud": 108.9810302
}, {
  "id": 5,
  "fecha": "3/11/2019",
  "importe": 49,
  "latitud": 28.445307,
  "longitud": 113.521804
}, {
  "id": 6,
  "fecha": "8/28/2019",
  "importe": 45,
  "latitud": 31.59998,
  "longitud": 118.553352
}, {
  "id": 7,
  "fecha": "8/17/2019",
  "importe": 69,
  "latitud": -7.0401751,
  "longitud": 107.7132895
}, {
  "id": 8,
  "fecha": "6/9/2019",
  "importe": 73,
  "latitud": 36.733165,
  "longitud": 103.262152
}, {
  "id": 9,
  "fecha": "10/13/2018",
  "importe": 89,
  "latitud": 24.723961,
  "longitud": 116.732091
}, {
  "id": 10,
  "fecha": "10/18/2018",
  "importe": 66,
  "latitud": -10.1749074,
  "longitud": 123.9136675
}]
